[
    {"type":"issue","categories":["Clarity"],"check_name":"quotes","description":"Strings must use singlequote.  https://eslint.org/docs/rules/quotes","fingerprint":"734c68d15d17eb6d4ce20c8090eb36e6","location":{"path":"engine-eslint/integration/eslint_test.js","lines":{"begin":1,"end":1}},"remediation_points":50000,"engine_name":"eslint","severity":"normal"},

    {"type":"issue","categories":["Style"],"check_name":"@typescript-eslint/no-unused-vars","description":"'dummy' is defined but never used.  https://eslint.org/docs/rules/@typescript-eslint/no-unused-vars","fingerprint":"f0e9b060a5caf37af5a450ed7c61cd96","location":{"path":"engine-eslint/integration/empty_config/index.js","lines":{"begin":1,"end":1}},"remediation_points":50000,"engine_name":"eslint","severity":"normal"},
    {
"type":"issue",
"categories":[
"Style"
],
"check_name":"quotes",
"description":"Strings must use singlequote. ",
"fingerprint":"f5b291029d2e4cfe5e6695cd63673d3b",
"location":{
"path":"engine-eslint/bin/eslint.js",
"lines":{
"begin":3,
"end":3
}
},
"severity":"normal",
"remediation_points":50000,
"engine_name":"eslint"
},
{
"type":"issue",
"check_name":"SystemPrintln",
"description":"Strings must use singlequote. ",

"categories":[
"Style"
],
"location":{
"path":"engine-pmd/fixtures/specified_file/Main.java",
"lines":{
"begin":13,
"end":13
}
},
"severity":"normal",
"remediation_points":50000,
"engine_name":"pmd",
"fingerprint":"e8c0930df7c237c56ea8ddb5ac390b96"
},

{
"type":"issue",
"check_name":"SystemPrintln",
"description":"System.out.println is used",
"content":{
"body":"## SystemPrintln\n\nSince: PMD 2.1\n\nPriority: Medium High\n\n[Categories](https://github.com/codeclimate/spec/blob/master/SPEC.md#categories): Style\n\n[Remediation Points](https://github.com/codeclimate/spec/blob/master/SPEC.md#remediation-points): 50000\n\nReferences to System.(out|err).print are usually intended for debugging purposes and can remain in the codebase even in production code. By using a logger one can enable/disable this behaviour at will (and by priority) and avoid clogging the Standard out log.\n\n### Example:\n\n```java\n\n \nclass Foo{\n Logger log = Logger.getLogger(Foo.class.getName());\n public void testA () {\n System.out.println('Entering test');\n // Better use this\n log.fine('Entering test');\n }\n}\n\n \n``` \n\n### [PMD properties](https://pmd.github.io/pmd-6.7.0/pmd_devdocs_working_with_properties.html)\n\nName | Value | Description\n--- | --- | ---\nviolationSuppressRegex | | Suppress violations with messages matching a regular expression\nviolationSuppressXPath | | Suppress violations on nodes which match a given relative XPath expression.\n"
},
"categories":[
"Style"
],
"location":{
"path":"engine-pmd/fixtures/specified_file/Main.java",
"lines":{
"begin":13,
"end":13
}
},
"severity":"normal",
"remediation_points":50000,
"engine_name":"pmd",
"fingerprint":"e8c0930df7c237c56ea8ddb5ac390b9d"
}]
